…
    ABIA$DepartureHour <- round(ABIA$DepTime/100, 0)

    ABIA <- ABIA %>% mutate(Month_label = ifelse(ABIA$Month %in% c(12, 1, 2), "Winter", ifelse(ABIA$Month %in% c(3, 4, 5), "Spring", ifelse(ABIA$Month %in% c(6, 7, 8), "Summer", "Fall"))))

-   What is the best time of day to fly to minimize delays The best time
    of the day to fly to minimize delays is 5am., 6am., and 7am.
    respectively.

<!-- -->

    ABIA %>% group_by(DepartureHour) %>% summarise(mean_dep_delay = mean(DepDelay, na.rm=TRUE)) %>% arrange(mean_dep_delay)

    ## # A tibble: 26 x 2
    ##    DepartureHour mean_dep_delay
    ##            <dbl>          <dbl>
    ##  1             5         -3.50 
    ##  2             6         -2.40 
    ##  3             7         -0.944
    ##  4             8          0.131
    ##  5             9          4.01 
    ##  6            11          5.12 
    ##  7            10          5.98 
    ##  8            13          7.07 
    ##  9            12          7.61 
    ## 10            15          8.97 
    ## # … with 16 more rows

-   Does this change by airline? for most airlines, such as 9E (Endeavor
    Air), B6 (JetBlue), CO (Copa Airline), DL (Delta Airline), and WN
    (SouthWest Airline) show least delay between 5am., 6am., and 7am.

<!-- -->

    mean_delay_by_hours <- ABIA %>% group_by(DepartureHour, UniqueCarrier) %>% summarise(mean_dep_delay = mean(DepDelay, na.rm=TRUE)) %>% arrange(mean_dep_delay)

    ## `summarise()` has grouped output by 'DepartureHour'. You can override using the `.groups` argument.

    mean_delay_by_hours

    ## # A tibble: 341 x 3
    ## # Groups:   DepartureHour [26]
    ##    DepartureHour UniqueCarrier mean_dep_delay
    ##            <dbl> <chr>                  <dbl>
    ##  1             5 AA                    -11.2 
    ##  2             6 B6                    -10.1 
    ##  3             5 US                     -6.14
    ##  4             5 YV                     -5.81
    ##  5             6 NW                     -5.6 
    ##  6            18 US                     -5.56
    ##  7            19 NW                     -5.42
    ##  8            12 NW                     -5.17
    ##  9             7 B6                     -4.92
    ## 10             6 OO                     -3.83
    ## # … with 331 more rows
…
<!-- -->

    mean_dep_delay_by_season <- ABIA %>% group_by(Month_label, Dest) %>% summarise(mean_dep_delay = mean(DepDelay, na.rm=TRUE)) %>% arrange(mean_dep_delay) 

    ## `summarise()` has grouped output by 'Month_label'. You can override using the `.groups` argument.

    mean_dep_delay_by_season

    ## # A tibble: 190 x 3
    ## # Groups:   Month_label [4]
    ##    Month_label Dest  mean_dep_delay
    ##    <chr>       <chr>          <dbl>
    ##  1 Fall        SNA            -7.5 
    ##  2 Fall        SEA            -4.5 
    ##  3 Winter      MSP            -3.5 
    ##  4 Winter      TUL            -3.46
    ##  5 Spring      CLT            -3.08
    ##  6 Summer      DTW            -3   
    ##  7 Fall        MEM            -2.93
    ##  8 Fall        SJC            -1.75
    ##  9 Fall        BOS            -1.68
    ## 10 Spring      JAX            -1.47
    ## # … with 180 more rows
…
-   Does this change by destination? (You’d probably want to focus on a
    handful of popular destinations.) By grouping flying activities by
    destinations and sorting the data we observed that the top 6 most
    popular destinations are DAL (Dallas), DFW (Dallas), IAH (Houston),
    PHX (Pheonix), DEN (Denver), and ORD (Illinois). The bar graph shows
    high average departure delay in Spring especially for Dallas and
    Illinois. All of the 6 destinations commonly show least average
    departure delay in Fall.

<!-- -->

    ABIA %>% group_by(Dest) %>% summarise(count = n()) %>% arrange(desc(count)) 

    ## # A tibble: 53 x 2
    ##    Dest  count
    ##    <chr> <int>
    ##  1 AUS   49637
    ##  2 DAL    5573
    ##  3 DFW    5506
    ##  4 IAH    3691
    ##  5 PHX    2783
    ##  6 DEN    2673
    ##  7 ORD    2514
    ##  8 HOU    2319
    ##  9 ATL    2252
    ## 10 LAX    1733
    ## # … with 43 more rows
…
